<?xml version='1.0' encoding='UTF-8'?>
<!-- Created with Inkscape (http://www.inkscape.org/) and export_objects.py -->
<svg xmlns:cc="http://creativecommons.org/ns#" xmlns:dc="http://purl.org/dc/elements/1.1/" xmlns:inkscape="http://www.inkscape.org/namespaces/inkscape" xmlns:rdf="http://www.w3.org/1999/02/22-rdf-syntax-ns#" xmlns:sodipodi="http://sodipodi.sourceforge.net/DTD/sodipodi-0.dtd" xmlns:xlink="http://www.w3.org/1999/xlink" xmlns="http://www.w3.org/2000/svg" version="1.1" id="svg1" width="16" height="16" viewBox="0 0 16 16" sodipodi:docname="node-transform-symbolic.svg">
<style id="s0">
   .base    { fill: #000000; }
   .success { fill: #009909; }
   .warning { fill: #FF1990; }
   .error   { fill: #00AAFF; }
   .dark    {  }
  </style>
  <style id="s2"> 
     @import '../../highlights.css'; 
  </style>

<sodipodi:namedview objecttolerance="10" gridtolerance="10" guidetolerance="10" id="namedview" showgrid="true" inkscape:zoom="0.6002936" inkscape:cx="732.67439" inkscape:cy="-567.94603" inkscape:window-width="1920" inkscape:window-height="1016" inkscape:window-x="0" inkscape:window-y="27" inkscape:window-maximized="1" inkscape:current-layer="layer1">
    <inkscape:grid type="xygrid" id="grid"/>
  </sodipodi:namedview>
  <g transform="translate(-349,-558.3622)" id="node-transform" inkscape:label="00161">
      <g transform="translate(-131,503.3622)" id="g6213">
        <path inkscape:connector-curvature="0" id="path5786" d="m 480,55 v 5 l 1.5,-1.5 2,2 -1.5,1.5 h 5 v -5 l -1.5,1.5 -2,-2 1.5,-1.5 z"/>
        <use height="540" width="1250" transform="matrix(-1,0,0,1,976,0)" id="use5795" xlink:href="#path5786" y="0" x="0"/>
        <use height="540" width="1250" transform="matrix(1,0,0,-1,0,126)" id="use5805" xlink:href="#path5786" y="0" x="0"/>
        <use height="540" width="1250" transform="rotate(180,488,63)" id="use5819" xlink:href="#path5786" y="0" x="0"/>
      </g>
      <path inkscape:connector-curvature="0" id="rect19206" d="m 349,46 h 16 v 16 h -16 z" style="opacity:0;fill:none" transform="translate(0,512.3622)"/>
    </g>
    </svg>
