<?xml version="1.0" encoding="UTF-8" standalone="no"?>
<svg
   xmlns:dc="http://purl.org/dc/elements/1.1/"
   xmlns:cc="http://creativecommons.org/ns#"
   xmlns:rdf="http://www.w3.org/1999/02/22-rdf-syntax-ns#"
   xmlns:svg="http://www.w3.org/2000/svg"
   xmlns="http://www.w3.org/2000/svg"
   xmlns:sodipodi="http://sodipodi.sourceforge.net/DTD/sodipodi-0.dtd"
   xmlns:inkscape="http://www.inkscape.org/namespaces/inkscape"
   inkscape:version="1.1-dev (6039630, 2019-12-20)"
   sodipodi:docname="object-locked-symbolic.svg"
   viewBox="0 0 16 16"
   height="16"
   width="16"
   id="svg1"
   version="1.1">
  <metadata
     id="metadata1250">
    <rdf:RDF>
      <cc:Work
         rdf:about="">
        <dc:format>image/svg+xml</dc:format>
        <dc:type
           rdf:resource="http://purl.org/dc/dcmitype/StillImage" />
      </cc:Work>
    </rdf:RDF>
  </metadata>
  <defs
     id="defs1248">
    <inkscape:path-effect
       hide_knots="false"
       only_selected="false"
       apply_with_radius="true"
       apply_no_radius="true"
       use_knot_distance="true"
       flexible="false"
       chamfer_steps="1"
       radius="0"
       mode="F"
       method="auto"
       unit="px"
       satellites_param="F,0,0,1,0,0.99998,0,1 @ F,0,0,1,0,0,0,1 @ F,0,0,1,0,0,0,1 @ F,0,1,1,0,0.99998,0,1"
       lpeversion="1"
       is_visible="true"
       id="path-effect1829"
       effect="fillet_chamfer" />
  </defs>
  <style
     id="s0">
.base { fill:#000000; }
.success { fill:#009909; }
.warning { fill:#FF1990; }
.error { fill:#00AAFF; }
.dark { }
</style>
  <style
     id="s2">
@import '../../highlights.css';
</style>
  <sodipodi:namedview
     inkscape:current-layer="object-locked"
     inkscape:window-maximized="1"
     inkscape:window-y="-6"
     inkscape:window-x="65"
     inkscape:window-height="890"
     inkscape:window-width="1296"
     inkscape:cy="9.9759751"
     inkscape:cx="4.5008739"
     inkscape:zoom="29.079766"
     showgrid="true"
     id="namedview"
     guidetolerance="10"
     gridtolerance="10"
     objecttolerance="10">
    <inkscape:grid
       id="grid"
       type="xygrid" />
  </sodipodi:namedview>
  <g
     id="object-locked"
     inkscape:label="00259"
     transform="translate(-195,-981.36218)">
    <path
       style="opacity:0;fill:none"
       d="m 195,981.36218 h 16 v 16 h -16 z"
       id="rect31383"
       inkscape:connector-curvature="0" />
    <path
       transform="translate(1)"
       inkscape:original-d="m 197,988.3622 v 8 h 10 v -8 z"
       inkscape:path-effect="#path-effect1829"
       inkscape:connector-curvature="0"
       style="opacity:1"
       d="m 197,989.36218 v 7.00002 h 10 v -7.00002 a 0.99998,0.99998 45 0 0 -0.99998,-0.99998 h -8.00004 A 0.99998,0.99998 135 0 0 197,989.36218 Z"
       id="path31387" />
    <path
       inkscape:connector-curvature="0"
       id="rect31389"
       d="m 199,986.3622 v 2 h 2 v -2 c 0,-1.108 0.892,-2 2,-2 1.108,0 2,0.892 2,2 v 2 h 2 v -2 c 0,-2.3808 -1.6025,-4 -4,-4 -2.3975,0 -3.9303,1.6907 -4,4 z"
       style="opacity:1" />
  </g>
</svg>
