<?xml version="1.0" encoding="UTF-8" standalone="no"?>
<svg
   xmlns:dc="http://purl.org/dc/elements/1.1/"
   xmlns:cc="http://creativecommons.org/ns#"
   xmlns:rdf="http://www.w3.org/1999/02/22-rdf-syntax-ns#"
   xmlns:svg="http://www.w3.org/2000/svg"
   xmlns="http://www.w3.org/2000/svg"
   xmlns:sodipodi="http://sodipodi.sourceforge.net/DTD/sodipodi-0.dtd"
   xmlns:inkscape="http://www.inkscape.org/namespaces/inkscape"
   inkscape:version="1.1-dev (6039630, 2019-12-20)"
   sodipodi:docname="path-outset-symbolic.svg"
   viewBox="0 0 16 16"
   height="16"
   width="16"
   id="svg1"
   version="1.1">
  <metadata
     id="metadata1898">
    <rdf:RDF>
      <cc:Work
         rdf:about="">
        <dc:format>image/svg+xml</dc:format>
        <dc:type
           rdf:resource="http://purl.org/dc/dcmitype/StillImage" />
      </cc:Work>
    </rdf:RDF>
  </metadata>
  <defs
     id="defs1896" />
  <style
     id="s0">.base { fill:#000000; }
.success { fill:#009909; }
.warning { fill:#FF1990; }
.error { fill:#00AAFF; }
.dark {  }
</style>
  <style
     id="s2">
@import '../../highlights.css';
</style>
  <sodipodi:namedview
     inkscape:current-layer="svg1"
     inkscape:window-maximized="1"
     inkscape:window-y="-6"
     inkscape:window-x="65"
     inkscape:window-height="890"
     inkscape:window-width="1296"
     inkscape:cy="8"
     inkscape:cx="8"
     inkscape:zoom="43.25"
     showgrid="true"
     id="namedview"
     guidetolerance="10"
     gridtolerance="10"
     objecttolerance="10">
    <inkscape:grid
       id="grid"
       type="xygrid" />
  </sodipodi:namedview>
  <g
     id="path-outset"
     inkscape:label="00084"
     transform="matrix(1,0,0,0.999999,-165,-747.36125)">
    <path
       style="opacity:0;fill:none"
       d="m 165,747.36218 h 16 v 16 h -16 z"
       id="rect19563"
       inkscape:connector-curvature="0" />
    <path
       inkscape:connector-curvature="0"
       id="path19594"
       d="m 165,747.4247 v 1.9687 c 8,-0.031 14,5.9688 13.9687,13.9688 h 1.9063 c -0.875,-10 -5.875,-15 -15.875,-15.9375 z"
       style="opacity:1" />
    <path
       class="success"
       inkscape:connector-curvature="0"
       id="path19605"
       d="m 168,754.3622 6,6 v -6 z"
       style="opacity:1" />
    <path
       id="path19607"
       d="m 165,756.3622 v 2 c 2.7614,0 5,2.2386 5,5 h 2 c 0,-3.866 -3.134,-7 -7,-7 z"
       style="opacity:0.4"
       inkscape:connector-curvature="0" />
  </g>
</svg>
