<?xml version="1.0" encoding="UTF-8" standalone="no"?>
<svg
   xmlns:dc="http://purl.org/dc/elements/1.1/"
   xmlns:cc="http://creativecommons.org/ns#"
   xmlns:rdf="http://www.w3.org/1999/02/22-rdf-syntax-ns#"
   xmlns:svg="http://www.w3.org/2000/svg"
   xmlns="http://www.w3.org/2000/svg"
   xmlns:sodipodi="http://sodipodi.sourceforge.net/DTD/sodipodi-0.dtd"
   xmlns:inkscape="http://www.inkscape.org/namespaces/inkscape"
   inkscape:version="1.0beta0 (1b5d333, 2019-09-08)"
   sodipodi:docname="snap-bounding-box-corners-symbolic.svg"
   viewBox="0 0 16 16"
   height="16"
   width="16"
   id="svg1"
   version="1.1">
<style id="s0">
   .base    { fill: #000000; }
   .success { fill: #009909; }
   .warning { fill: #FF1990; }
   .error   { fill: #00AAFF; }
   .dark    {  }
  </style>
  <style id="s2"> 
     @import '../../highlights.css'; 
  </style>
   
  <metadata
     id="metadata1619">
    <rdf:RDF>
      <cc:Work
         rdf:about="">
        <dc:format>image/svg+xml</dc:format>
        <dc:type
           rdf:resource="http://purl.org/dc/dcmitype/StillImage" />
      </cc:Work>
    </rdf:RDF>
  </metadata>
  <defs
     id="defs1617" />
  <sodipodi:namedview
     inkscape:snap-bbox="false"
     inkscape:current-layer="svg1"
     inkscape:window-maximized="1"
     inkscape:window-y="-8"
     inkscape:window-x="54"
     inkscape:window-height="1177"
     inkscape:window-width="1858"
     inkscape:cy="0.62929031"
     inkscape:cx="11.361428"
     inkscape:zoom="19.209395"
     showgrid="true"
     id="namedview"
     guidetolerance="10"
     gridtolerance="10"
     objecttolerance="10">
    <inkscape:grid
       id="grid"
       type="xygrid" />
  </sodipodi:namedview>
  <g
     inkscape:label="00323"
     id="snap-bounding-box-corners"
     transform="matrix(0.998054,0,0,0.996108,-647.70619,-504.39161)">
    <path
       style="opacity:0;fill:none"
       d="m 649,506.42471 h 16 v 16 h -16 z"
       id="rect22498"
       inkscape:connector-curvature="0" />
    <path
       inkscape:connector-curvature="0"
       id="path22500"
       d="m 663.9062,506.3622 -1.9375,0.083 v 3.9796 h 2 c 0,-0.8844 -0.062,-3.1782 -0.062,-4.0625 z"
       style="opacity:1" />
    <path
       transform="scale(-1)"
       style="opacity:1"
       d="m -663.96881,-516.42468 h 2 v 4 h -2 z"
       id="rect22502"
       inkscape:connector-curvature="0" />
    <path
       transform="rotate(-90)"
       style="opacity:1"
       d="m -521.42468,654.96881 h 2 v 4 h -2 z"
       id="rect22506"
       inkscape:connector-curvature="0" />
    <path
       transform="rotate(-90)"
       style="opacity:1"
       d="m -521.42468,648.96881 h 2 v 4 h -2 z"
       id="rect22508"
       inkscape:connector-curvature="0" />
    <path
       style="opacity:0.5"
       d="m 659.9687,517.4247 v -7 l -7,7 z"
       id="path22512"
       inkscape:connector-curvature="0" />
    <path
       class="success"
       transform="matrix(0.687668,0.7260253,-0.7260156,0.6876782,0,0)"
       style="opacity:1"
       d="m 831.24652,-125.2675 h 3.53681 v 3.53681 h -3.53681 z"
       id="rect22515"
       inkscape:connector-curvature="0" />
  </g>
</svg>
