<?xml version="1.0" encoding="UTF-8" standalone="no"?>
<svg
   xmlns:dc="http://purl.org/dc/elements/1.1/"
   xmlns:cc="http://creativecommons.org/ns#"
   xmlns:rdf="http://www.w3.org/1999/02/22-rdf-syntax-ns#"
   xmlns:svg="http://www.w3.org/2000/svg"
   xmlns="http://www.w3.org/2000/svg"
   xmlns:sodipodi="http://sodipodi.sourceforge.net/DTD/sodipodi-0.dtd"
   xmlns:inkscape="http://www.inkscape.org/namespaces/inkscape"
   inkscape:version="1.1-dev (6039630, 2019-12-20)"
   sodipodi:docname="transform-scale-horizontal-symbolic.svg"
   viewBox="0 0 16 16"
   height="16"
   width="16"
   id="svg1"
   version="1.1">
  <metadata
     id="metadata12980">
    <rdf:RDF>
      <cc:Work
         rdf:about="">
        <dc:format>image/svg+xml</dc:format>
        <dc:type
           rdf:resource="http://purl.org/dc/dcmitype/StillImage" />
      </cc:Work>
    </rdf:RDF>
  </metadata>
  <defs
     id="defs12978" />
  <style
     id="s0">.base { fill:#000000; }
.success { fill:#009909; }
.warning { fill:#FF1990; }
.error { fill:#00AAFF; }
.dark {  }
</style>
  <style
     id="s2">
@import '../../highlights.css';
</style>
  <sodipodi:namedview
     inkscape:current-layer="svg1"
     inkscape:window-maximized="1"
     inkscape:window-y="-6"
     inkscape:window-x="65"
     inkscape:window-height="890"
     inkscape:window-width="1296"
     inkscape:cy="8"
     inkscape:cx="8"
     inkscape:zoom="41.125"
     showgrid="true"
     id="namedview"
     guidetolerance="10"
     gridtolerance="10"
     objecttolerance="10">
    <inkscape:grid
       id="grid"
       type="xygrid" />
  </sodipodi:namedview>
  <g
     id="transform-scale-horizontal"
     inkscape:label="00240"
     transform="matrix(0.999268,0,0,1,-557.59156,-682.36218)">
    <path
       style="opacity:0;fill:none"
       d="m 558.01172,682.36218 h 16 v 16 h -16 z"
       id="rect15601"
       inkscape:connector-curvature="0" />
    <path
       sodipodi:nodetypes="cccccccc"
       class="success"
       style="opacity:1"
       d="m 564,686.3622 v 2 h 5.011 v 2 l 4,-3 -4,-3 v 2 z"
       id="path15603"
       inkscape:connector-curvature="0" />
    <path
       sodipodi:nodetypes="sssssssss"
       style="opacity:1"
       d="m 564.00588,692.36218 h 4 c 0.554,0 1,0.446 1,1 v 4 c 0,0.554 -0.446,1 -1,1 h -4 c -0.554,0 -1,-0.446 -1,-1 v -4 c 0,-0.554 0.446,-1 1,-1 z"
       id="rect15605"
       inkscape:connector-curvature="0" />
    <path
       sodipodi:nodetypes="cccccccc"
       class="success"
       inkscape:connector-curvature="0"
       id="path15609"
       d="m 568,686.3622 v 2 h -4.99925 v 2 l -4,-3 4,-3 v 2 z"
       style="opacity:1" />
  </g>
</svg>
